[
  "BRK.A",
  "SEB",
  "NVR",
  "FNMFO",
  "RELV",
  "ODTC",
  "MSTR",
  "AVGO",
  "BKNG",
  "MELI",
  "MKL",
  "ZVZZT",
  "ATDS",
  "SMECF",
  "BMYMP",
  "SMCI",
  "CMG",
  "NVDA",
  "ADYYF",
  "AZO",
  "MDB",
  "ADBE",
  "MTD",
  "LLY",
  "HUBS",
  "LRCX",
  "REGN",
  "KYCCF",
  "HUM",
  "TSLA",
  "MITSY",
  "COIN",
  "FCNCA",
  "NOW",
  "FICO",
  "CNSWF",
  "ONYXW",
  "MPWR",
  "DECK",
  "NFLX",
  "SNPS",
  "URI",
  "SAIA",
  "INTU",
  "LULU",
  "TPL",
  "COST",
  "EQIX",
  "DUOL",
  "META",
  "IDXX",
  "UNH",
  "ORLY",
  "HESAF",
  "ATCD",
  "PANW",
  "FNGU",
  "KLAC",
  "LABU",
  "TDG",
  "RH",
  "FRFHF",
  "IESFY",
  "CHTR",
  "ARGX",
  "TMO",
  "ULTA",
  "FMBL",
  "MDGL",
  "AMKAF",
  "ASML",
  "CRWD",
  "AMEN",
  "VRTX",
  "ODFL",
  "BLK",
  "MSFT",
  "MNPP",
  "FSLR",
  "SOXX",
  "ENPH",
  "ASMIY",
  "CI",
  "MNDY",
  "ANSS",
  "SNOW",
  "ZS",
  "DE",
  "ELV",
  "LII",
  "SWAV",
  "ALGN",
  "ISRG",
  "MSCI",
  "ALB",
  "TEAM",
  "WDAY",
  "DPZ",
  "GWW",
  "INSP",
  "POOL",
  "FZRO",
  "AMR",
  "DBSHF",
  "RGBPP",
  "LIN",
  "EG",
  "PODD",
  "CRSP",
  "MCK",
  "MLM",
  "CABO",
  "BA",
  "IT",
  "CRM",
  "PEN",
  "GS",
  "MYMX",
  "BIO",
  "KOLD",
  "KRRO",
  "MA",
  "PH",
  "SEDG",
  "CZOO",
  "HUBB",
  "KNSL",
  "DDS",
  "DPST",
  "CACC",
  "SPOT",
  "CAT",
  "AMD",
  "SPGI",
  "RGEN",
  "WAT",
  "QQQ",
  "MOH",
  "DBGIW",
  "WSO",
  "BAC-L",
  "GLOB",
  "SYM",
  "WST",
  "CAR",
  "HD",
  "PDD",
  "BLD",
  "DIT",
  "MRNA",
  "ICLR",
  "ROP",
  "ROKU",
  "LTRPB",
  "ACN",
  "CVNA",
  "CDNS",
  "ELF",
  "ANET",
  "FDX",
  "MEDP",
  "BURL",
  "NXPI",
  "AON",
  "ADSK",
  "AMGN",
  "MSAI",
  "CCG",
  "ILMN",
  "EPAM",
  "MKTX",
  "CYBR",
  "PPRUF",
  "SBNC",
  "PCTY",
  "NOC",
  "LAD",
  "CTAS",
  "LPLA",
  "FBYD",
  "MCO",
  "CONC",
  "ZBRA",
  "SYK",
  "DHR",
  "SPY",
  "AMT",
  "BLDR",
  "ASMLF",
  "LMT",
  "MDY",
  "ESTC",
  "BSND",
  "BIIB",
  "AXON",
  "LVMHF",
  "UPST",
  "COKE",
  "VEEV",
  "ROK",
  "WTM",
  "WING",
  "COO",
  "SBAC",
  "AMAT",
  "BRK.B",
  "WSM",
  "CYTK",
  "NICE",
  "ABNB",
  "SHW",
  "RNR",
  "OIH",
  "EL",
  "CRL",
  "FIVE",
  "FDS",
  "FIVN",
  "TSCO",
  "ETN",
  "APD",
  "HCA",
  "GPCR",
  "PAYC",
  "SZKMY",
  "BH.A",
  "AXLA",
  "IWM",
  "PSA",
  "ALNY",
  "TDY",
  "PIXY",
  "TYL",
  "AFRM",
  "IQV",
  "UTHR",
  "AMZN",
  "DKS",
  "NRGU",
  "BGNE",
  "YNDX",
  "DG",
  "GTLS",
  "CHE",
  "MULN",
  "IGV",
  "LOW",
  "APLS",
  "DDOG",
  "ADI"
]